[
    {
        "ID": 1,
        "NAME": "Oxford Half-Shirt",
        "CATEGORY": "Mens Clothing",
        "SUB-CATEGORY": "Shirts",
        "BRANDNAME": "UFO",
        "DESCRIPTION": "Sizes: M-2XL\nColors: Sky Blue, Yellow, Grey, Peach, Blue\n\nMaterial: 100% Cotton",
        "PRICE": 1598,
        "IMAGEURL": "https://www.ufonepal.com/ufo/wp-content/uploads/2023/07/0002_P2_103596_DSC08239.jpg",
        "Stock": 58
    },
    {
        "ID": 2,
        "NAME": "UFO Fleece Shirt",
        "CATEGORY": "Mens Clothing",
        "SUB-CATEGORY": "Shirts",
        "BRANDNAME": "UFO",
        "DESCRIPTION": "Size: M \u2013 XL\nMaterial: Light Polar Fleece (100% Polyester)\nColor: Brown, Grey, Beige and Blue",
        "PRICE": 1698,
        "IMAGEURL": "https://www.ufonepal.com/ufo/wp-content/uploads/2022/02/98075m.jpg",
        "Stock": 76
    },
    {
        "ID": 3,
        "NAME": "UFO Oxford Full Shirt",
        "CATEGORY": "Mens Clothing",
        "SUB-CATEGORY": "Shirts",
        "BRANDNAME": "UFO",
        "DESCRIPTION": "Size: M- XXL\nColor: Black, White, Light Blue, Blue, Grey\n\nMaterial: 100% Cotton",
        "PRICE": 1898,
        "IMAGEURL": "https://www.ufonepal.com/ufo/wp-content/uploads/2023/05/95539_ms3.jpg",
        "Stock": 7
    },
    {
        "ID": 4,
        "NAME": "Flannel Shirt",
        "CATEGORY": "Mens Clothing",
        "SUB-CATEGORY": "Shirts",
        "BRANDNAME": "UFO",
        "DESCRIPTION": "Size: XS \u2013 XL\nMaterial: 100% Tencel\nColour: Blue, Pink and White",
        "PRICE": 1898,
        "IMAGEURL": "https://www.ufonepal.com/ufo/wp-content/uploads/2022/08/99741w.jpg",
        "Stock": 13
    },
    {
        "ID": 5,
        "NAME": "Chambray Shirt",
        "CATEGORY": "Mens Clothing",
        "SUB-CATEGORY": "Shirts",
        "BRANDNAME": "UFO",
        "DESCRIPTION": "Size: M-XL\nColors: Blue, Sky Blue, Pink\n\nMaterial: Cotton",
        "PRICE": 1998,
        "IMAGEURL": "https://www.ufonepal.com/ufo/wp-content/uploads/2022/09/99299z_1.jpg",
        "Stock": 1
    },
    {
        "ID": 6,
        "NAME": "Full Shirt",
        "CATEGORY": "Mens Clothing",
        "SUB-CATEGORY": "Shirts",
        "BRANDNAME": "UFO",
        "DESCRIPTION": "Size: 39-43\nColors: Sky Blue, Grey",
        "PRICE": 1998,
        "IMAGEURL": "https://www.ufonepal.com/ufo/wp-content/uploads/2023/09/0004_P7_103887_DSC07755.jpg",
        "Stock": 87
    },
    {
        "ID": 7,
        "NAME": "Plain Full Shirt",
        "CATEGORY": "Mens Clothing",
        "SUB-CATEGORY": "Shirts",
        "BRANDNAME": "UFO",
        "DESCRIPTION": "Size: S-XL\nColors: Grey, White, Beige, Brown",
        "PRICE": 2148,
        "IMAGEURL": "https://www.ufonepal.com/ufo/wp-content/uploads/2023/03/0033_101681_DSC02329.jpg",
        "Stock": 29
    },
    {
        "ID": 8,
        "NAME": "Flannel Shirt",
        "CATEGORY": "Mens Clothing",
        "SUB-CATEGORY": "Shirts",
        "BRANDNAME": "UFO",
        "DESCRIPTION": "Size: M-XL\nColors: Blue, Sky Blue, Pink\n\nMaterial: Cotton",
        "PRICE": 2748,
        "IMAGEURL": "https://www.ufonepal.com/ufo/wp-content/uploads/2024/02/105912_DSC09220.jpg",
        "Stock": 98
    },
    {
        "ID": 9,
        "NAME": "Stylish Cotrise Cotton Shirt Full Sleeves Pocket Winter Shirt For Men - Multicolor Fashion Cotrise Cotton Shirt For Men",
        "CATEGORY": "Mens Clothing",
        "SUB-CATEGORY": "Shirts",
        "BRANDNAME": "No Brand",
        "DESCRIPTION": "size : XXXL XXL L XL\nMaterial :100%Cotton\nNeck : Collar neck\nSleeves : Full sleeves\nStyle : Solid\nAppropriate for casual use\nPerfect for Summer\nWash : Machine/Hand Wash\nQuality:High quality",
        "PRICE": 1399,
        "IMAGEURL": "https://static-01.daraz.com.np/p/09b7d530038a234b8703a1c11d089068.jpg",
        "Stock": 40
    },
    {
        "ID": 10,
        "NAME": "Satan Mix Full Sleeve Premium Quality Formal Shirt For Men - Black And White | Fashion Full Sleeves Shirt For Men",
        "CATEGORY": "Mens Clothing",
        "SUB-CATEGORY": "Shirts",
        "BRANDNAME": "No Brand",
        "DESCRIPTION": "size : XXXL XXL L XL\nFabric: Satan fabric\n100% genuine product\nPremium quality shirt\nAppropriate for office, party and many more\nSuitable to wear in any season\nWashable at home, dry in shade",
        "PRICE": 1150,
        "IMAGEURL": "https://static-01.daraz.com.np/p/13a9b00c2a0660c8af4ab5539d0a9540.jpg",
        "Stock": 68
    },
    {
        "ID": 11,
        "NAME": "Cotton Mixed Satan Shirt For Men | Full Sleeve Satan Shirt For Men",
        "CATEGORY": "Mens Clothing",
        "SUB-CATEGORY": "Shirts",
        "BRANDNAME": "No Brand",
        "DESCRIPTION": "size : XXXL XXL L XL\nFabric: Satan fabric\nFit type: Slim Fit\nSleeve: Full sleeve\nPremium quality shirt\nWashable at home, dry in shade",
        "PRICE": 1150,
        "IMAGEURL": "https://static-01.daraz.com.np/p/9df69a4014f5b1a2f71181a4f64952c1.jpg",
        "Stock": 30
    },
    {
        "ID": 12,
        "NAME": "Blue/White Full Sleeves Comfortable Woolen Shirt For Men",
        "CATEGORY": "Mens Clothing",
        "SUB-CATEGORY": "Shirts",
        "BRANDNAME": "No Brand",
        "DESCRIPTION": "size : XXXL XXL L XL\nMaterial : Cotton\nNeck : Collar neck\nSleeves : Full sleeves\nStyle : Checked\nAppropriate for casual and formal use And Office use\nPerfect for Summer And Winter\nWash : Machine/Hand Wash",
        "PRICE": 1249,
        "IMAGEURL": "https://static-01.daraz.com.np/p/16e551dfc4e68a564f076d6a8b06b2f1.jpg",
        "Stock": 2
    },
    {
        "ID": 13,
        "NAME": "Plain Formal And Casual Stretchable Slim Fit Full Sleeves Shirt For Men (White, Black, Grey Color)",
        "CATEGORY": "Mens Clothing",
        "SUB-CATEGORY": "Shirts",
        "BRANDNAME": "No Brand",
        "DESCRIPTION": "size : XXXL XXL L XL\nStandard collar with a regular spread\nStretch fabric\n97% cotton, 3% elastane\nPremium quality shirt for men's\nAppropriate for office, party and many more uses\nSuitable to wear in any season\nFull Sleeve\nXL: chest 40 and 42 can order this\nXXL : Chest 43 to 45 can order this size\nWashable at home",
        "PRICE": 1040,
        "IMAGEURL": "https://static-01.daraz.com.np/p/e8cdd2dd5ee974ca58e91a347929badc.jpg",
        "Stock": 38
    },
    {
        "ID": 14,
        "NAME": "Tipikka Bone White Color Cotton Feel Full Sleeve Plain Formal Shirt For Men",
        "CATEGORY": "Mens Clothing",
        "SUB-CATEGORY": "Shirts",
        "BRANDNAME": "Tipikka",
        "DESCRIPTION": "size : XXXL XXL L XL M S",
        "PRICE": 1250,
        "IMAGEURL": "https://static-01.daraz.com.np/p/80898144487a16b0924ee8ed30863516.jpg",
        "Stock": 97
    },
    {
        "ID": 15,
        "NAME": "Solid Cotton Polyester Mix Full Sleeve Formal Shirt For Men - Multicolor | Fashion Full Sleeves Shirt For Men",
        "CATEGORY": "Mens Clothing",
        "SUB-CATEGORY": "Shirts",
        "BRANDNAME": "No Brand",
        "DESCRIPTION": "size : XXXL XXL L XL M S\nMaterial: Trailing\nMaterial: Polyester\nApplicable Scene: Office\nShirts Type: Dress Shirts\nSleeve Length(cm): Full\nStyle: Formal\nApplicable Season: Four Seasons\nCollar: Turn-down Collar\nClosure Type: Single Breasted\nItem Type: Shirts\nSleeve Style: Regular\nGender: MEN\nPattern Type: Solid\nFabric: 40% Cotton, 60% Polyester\nnote- Please check the size charts before ordering the shirts and its not slim fit",
        "PRICE": 1350,
        "IMAGEURL": "https://static-01.daraz.com.np/p/25026c6a5c693a29fb0be7da97511554.jpg",
        "Stock": 55
    },
    {
        "ID": 16,
        "NAME": "Stylish Thick Lining Cotrise Cotton Shirt Full Sleeves Pocket Winter Shirt For Men - Black Color Fashion Cotrise Cotton Shirt For Men",
        "CATEGORY": "Mens Clothing",
        "SUB-CATEGORY": "Shirts",
        "BRANDNAME": "No Brand",
        "DESCRIPTION": "size : XXXL XXL L XL\nMaterial :100%Cotton\nNeck : Collar neck\nSleeves : Full sleeves\nStyle : Solid\nAppropriate for casual use\nPerfect for Summer\nWash : Machine/Hand Wash\nQuality:High quality",
        "PRICE": 1399,
        "IMAGEURL": "https://static-01.daraz.com.np/p/1b040ab62a88426a520f150f7a6d3290.jpg",
        "Stock": 28
    },
    {
        "ID": 17,
        "NAME": "Plain White Full Sleeves Plain Cotton Shirt For Men",
        "CATEGORY": "Mens Clothing",
        "SUB-CATEGORY": "Shirts",
        "BRANDNAME": "No Brand",
        "DESCRIPTION": "size : XXXL XXL L XL\nWhite Full Sleeved Shirt\nHalf Cotton Shirts For Men\nStylish and Comfortable\nSizes: Medium, Large, XL and XXL\nXXL Suitable upto 85 KG\nMaterial: Soft Cotton\nMachine Wash",
        "PRICE": 1040,
        "IMAGEURL": "https://static-01.daraz.com.np/p/a5122d32aecc9b966c97c66892d2fa24.jpg",
        "Stock": 10
    },
    {
        "ID": 18,
        "NAME": "Multicolor Checked Inside Woolen Slim Body Shirt for Men",
        "CATEGORY": "Mens Clothing",
        "SUB-CATEGORY": "Shirts",
        "BRANDNAME": "No Brand",
        "DESCRIPTION": "size : XXXL XXL L XL\n\u2022 Multicolor Checked Woolen Slim Body Shirt for Men\n\u2022 Perfect for casual occasions\n\u2022 Soft and comfortable to wear\n\u2022 Stylish and trendy design\n\u2022 Ideal for winter season\n\u2022 Available in various sizes\n\u2022 Great addition to your wardrobe",
        "PRICE": 599,
        "IMAGEURL": "https://static-01.daraz.com.np/p/bf837899728eadecc3922e01476f8808.jpg",
        "Stock": 58
    },
    {
        "ID": 19,
        "NAME": "Soft Cotton Linning Print Half Shirt For Men - White With Blue Linning | Fashion Linning Print Half Shirt For Men",
        "CATEGORY": "Mens Clothing",
        "SUB-CATEGORY": "Shirts",
        "BRANDNAME": "No Brand",
        "DESCRIPTION": "size : XXXL XXL L XL\nSleeve Length: Half Sleeves\nMaterial: Cotton\nPattern: linning Print\nFit: Regular\nNeck Type: Collar\nWash Care: Machine Wash/ Hand Wash/ Donot Bleach.",
        "PRICE": 850,
        "IMAGEURL": "https://static-01.daraz.com.np/p/ad8654667bafbe0347d94b541fbbd77d.jpg",
        "Stock": 43
    },
    {
        "ID": 20,
        "NAME": "Dark Blue/White Tail Cotton Classic Printed Full Sleeves Shirt For Men",
        "CATEGORY": "Mens Clothing",
        "SUB-CATEGORY": "Shirts",
        "BRANDNAME": "No Brand",
        "DESCRIPTION": "size : XXXL XXL L XL\nMaterial: Talicotton\nNeck: Collar neck\nSleeves: Full sleeves\nStyle: plain\nAppropriate for casual and formal use\nPerfect for Summer\nWash: Machine/Hand Wash",
        "PRICE": 1345,
        "IMAGEURL": "https://static-01.daraz.com.np/p/aff797f937aa123f2cd83a11e622be41.jpg",
        "Stock": 53
    },
    {
        "ID": 21,
        "NAME": "Full Sleeve Polo Shirt",
        "CATEGORY": "Mens Clothing",
        "SUB-CATEGORY": "T-Shirt",
        "BRANDNAME": "UFO",
        "DESCRIPTION": "Size: S-2XL color: black",
        "PRICE": 2574,
        "IMAGEURL": "https://www.ufonepal.com/ufo/wp-content/uploads/2023/11/105633_DSC08896-Edit.jpg",
        "Stock": 18
    },
    {
        "ID": 22,
        "NAME": "Plain T-Shirt",
        "CATEGORY": "Mens Clothing",
        "SUB-CATEGORY": "T-Shirt",
        "BRANDNAME": "UFO",
        "DESCRIPTION": "Size: M-4XL\nColors: Bown, White",
        "PRICE": 1378,
        "IMAGEURL": "https://www.ufonepal.com/ufo/wp-content/uploads/2023/10/0027_p14_104322_DSC01771.jpg",
        "Stock": 38
    },
    {
        "ID": 23,
        "NAME": "Tank Top",
        "CATEGORY": "Mens Clothing",
        "SUB-CATEGORY": "T-Shirt",
        "BRANDNAME": "UFO",
        "DESCRIPTION": "Size: M-2XL\nColors: Black, Orange, White, Turquoise",
        "PRICE": 1278,
        "IMAGEURL": "https://www.ufonepal.com/ufo/wp-content/uploads/2023/10/0022_p15_104321_DSC01780.jpg",
        "Stock": 64
    },
    {
        "ID": 24,
        "NAME": "Pain T-Shirt",
        "CATEGORY": "Mens Clothing",
        "SUB-CATEGORY": "T-Shirt",
        "BRANDNAME": "UFO",
        "DESCRIPTION": "Size: L-2XL\nColors: Beige, White, Black",
        "PRICE": 1248,
        "IMAGEURL": "https://www.ufonepal.com/ufo/wp-content/uploads/2023/10/0023_104661_DSC01220.jpg",
        "Stock": 94
    },
    {
        "ID": 25,
        "NAME": "Printed T-Shirt",
        "CATEGORY": "Mens Clothing",
        "SUB-CATEGORY": "T-Shirt",
        "BRANDNAME": "UFO",
        "DESCRIPTION": "Size: L-2XL\nColors: White, Black",
        "PRICE": 1298,
        "IMAGEURL": "https://www.ufonepal.com/ufo/wp-content/uploads/2023/10/0016_104662_DSC01227.jpg",
        "Stock": 30
    },
    {
        "ID": 26,
        "NAME": "Printed T-Shirt",
        "CATEGORY": "Mens Clothing",
        "SUB-CATEGORY": "T-Shirt",
        "BRANDNAME": "UFO",
        "DESCRIPTION": "Size: L-2XL\nColors: Teal Green, White, Black, Grey",
        "PRICE": 1298,
        "IMAGEURL": "https://www.ufonepal.com/ufo/wp-content/uploads/2023/10/0004_104952_DSC01230.jpg",
        "Stock": 78
    },
    {
        "ID": 27,
        "NAME": "Lycra Basic T-Shirt",
        "CATEGORY": "Mens Clothing",
        "SUB-CATEGORY": "T-Shirt",
        "BRANDNAME": "UFO",
        "DESCRIPTION": "Colors: Olive Brown, Royal Blue, Black, Grey, Blue, Dark Green\n\nMaterial: Lycra Cotton Sinker\nStretchable, breathable and comfortable.",
        "PRICE": 1378,
        "IMAGEURL": "https://www.ufonepal.com/ufo/wp-content/uploads/2023/09/0009_P1_104201_1378_DSC06527.jpg",
        "Stock": 66
    },
    {
        "ID": 28,
        "NAME": "Shangrila Magic Buddha Printed T-Shirt For Men - Black | Multisize | Fashion | Summer T-Shirts For Men",
        "CATEGORY": "Mens Clothing",
        "SUB-CATEGORY": "T-Shirt",
        "BRANDNAME": "Shangri-la",
        "DESCRIPTION": "Brand: Shangri-LaSize: L-2XL\nFabric: 100% Cotton\nNeck: Round neck",
        "PRICE": 330,
        "IMAGEURL": "https://static-01.daraz.com.np/p/02619b2692fc82642bc5d9581c48391f.png",
        "Stock": 82
    },
    {
        "ID": 29,
        "NAME": "Cactus Jack T-shirt For Men",
        "CATEGORY": "Mens Clothing",
        "SUB-CATEGORY": "T-Shirt",
        "BRANDNAME": "Generic",
        "DESCRIPTION": "Brand : Generic\nGender : Unisex\nWash Care : Hand/Machine wash",
        "PRICE": 425,
        "IMAGEURL": "https://static-01.daraz.com.np/p/47963ec5c2fc6f26a749b763fc7fc67b.jpg",
        "Stock": 85
    },
    {
        "ID": 30,
        "NAME": "Men Soft Cotton Round Neck Summer T-Shirt",
        "CATEGORY": "Mens Clothing",
        "SUB-CATEGORY": "T-Shirt",
        "BRANDNAME": "No Brand",
        "DESCRIPTION": "Color: Multicolor\nStyle: Casual\nPattern Type: Plain\nNeckline: Round Neck\nSleeve Length: Short Sleeve\nSleeve Type: Regular Sleeve\nLength: Regular\nFit Type: Regular Fit\nFabric: Slight Stretch Cotton\nMaterial: Cotton\nComposition: 100% Cotton\nCare Instructions: Machine wash or professional dry clean\nSheer: No",
        "PRICE": 390,
        "IMAGEURL": "https://static-01.daraz.com.np/p/48fa461e4c4ce21116a06502d9ec7cdf.jpg",
        "Stock": 32
    },
    {
        "ID": 31,
        "NAME": "Men Soft Cotton Round Neck Summer T-Shirt - Multicolor | Multisize | Fashion | Summer T-Shirts For Men",
        "CATEGORY": "Mens Clothing",
        "SUB-CATEGORY": "T-Shirt",
        "BRANDNAME": "No Brand",
        "DESCRIPTION": "Color: Multicolor\nStyle: Casual\nPattern Type: Plain\nNeckline: Round Neck\nSleeve Length: Short Sleeve\nSleeve Type: Regular Sleeve\nLength: Regular\nFit Type: Regular Fit\nFabric: Slight Stretch\nMaterial: Soft Cotton\nComposition: 100% Cotton\nCare Instructions: Machine wash or professional dry clean\nSheer: No",
        "PRICE": 360,
        "IMAGEURL": "https://static-01.daraz.com.np/p/8d6caa77cd9bfc542350703371f8bdcb.jpg",
        "Stock": 76
    },
    {
        "ID": 32,
        "NAME": "100% Cotton Jujutsu Kaisen Anime Printed T-Shirt For Men - Multicolor | Multisize | Fashion | T-Shirts For Men",
        "CATEGORY": "Mens Clothing",
        "SUB-CATEGORY": "T-Shirt",
        "BRANDNAME": "No Brand",
        "DESCRIPTION": "Please check the size chart before purchase\nMaterial: Cotton\nNeck Type: Round Neck\nSleeves: half Sleeve\nStyle: Plain\nFit: Loose Fit\nType: Unisex",
        "PRICE": 425,
        "IMAGEURL": "https://static-01.daraz.com.np/p/3f8d701cc3878517dad1ed0d90325f68.jpg",
        "Stock": 31
    },
    {
        "ID": 33,
        "NAME": "Cactus Jack Summer T-Shirt For Men",
        "CATEGORY": "Mens Clothing",
        "SUB-CATEGORY": "T-Shirt",
        "BRANDNAME": "No Brand",
        "DESCRIPTION": "Pattern Type: Plain\nNeckline: Round Neck\nSleeve Length: Short Sleeve\nSleeve Type: Regular Sleeve\nLength: Regular\nFit Type: Regular Fit\nFabric: Slight Stretch Cotton\nMaterial: Cotton\nComposition: 100% Cotton\nCare Instructions: Machine wash or professional dry clean\nSheer: No",
        "PRICE": 350,
        "IMAGEURL": "https://static-01.daraz.com.np/p/a160b65093dc1c80d21cc58464a46ba2.jpg",
        "Stock": 55
    },
    {
        "ID": 34,
        "NAME": "Shangrila Itachi Anime Printed T-Shirt For Men - Black | Multisize | Fashion | Summer T-Shirts For Men",
        "CATEGORY": "Mens Clothing",
        "SUB-CATEGORY": "T-Shirt",
        "BRANDNAME": "Shangri-la",
        "DESCRIPTION": "Brand: Shangri-La\nFabric: 100% Cotton\nNeck: Round neck\nFit: Regular\nWash Care:Hand/Machine wash",
        "PRICE": 330,
        "IMAGEURL": "https://static-01.daraz.com.np/p/0ac831dc7ebd682787508f625c3a96c5.jpg",
        "Stock": 7
    },
    {
        "ID": 35,
        "NAME": "Shangrila Pack Of 2 Cotton T-Shirt For Men - Fashion | T-Shirts For Men | Men's Wear | Printed T-Shirts |",
        "CATEGORY": "Mens Clothing",
        "SUB-CATEGORY": "T-Shirt",
        "BRANDNAME": "Shangri-la",
        "DESCRIPTION": "Material: 100% Cotton\nPack of two cotton t-shirt\nNeck: Round neck\nSleeves: Short\nLength: Waist length\nWash care: Hand/Machine wash",
        "PRICE": 550,
        "IMAGEURL": "https://static-01.daraz.com.np/p/b1d0427d86b30e49ab56711474e554c4.jpg",
        "Stock": 55
    },
    {
        "ID": 36,
        "NAME": "Men Soft Cotton Round Neck Summer T-Shirt",
        "CATEGORY": "Mens Clothing",
        "SUB-CATEGORY": "T-Shirt",
        "BRANDNAME": "No Brand",
        "DESCRIPTION": "Color: Multicolor\nStyle: Casual\nPattern Type: Plain\nNeckline: Round Neck\nSleeve Length: Short Sleeve\nSleeve Type: Regular Sleeve\nLength: Regular\nFit Type: Regular Fit\nFabric: Slight Stretch Cotton\nMaterial: Cotton\nComposition: 100% Cotton\nCare Instructions: Machine wash or professional dry clean\nSheer: No",
        "PRICE": 390,
        "IMAGEURL": "https://static-01.daraz.com.np/p/c0881ce54200a05873f69952a95b4022.jpg",
        "Stock": 64
    },
    {
        "ID": 37,
        "NAME": "Roman Reigns Tshirt for Men",
        "CATEGORY": "Mens Clothing",
        "SUB-CATEGORY": "T-Shirt",
        "BRANDNAME": "No Brand",
        "DESCRIPTION": "Material : Regular Cotton\nStyle : Printed\nNeck : Round neck\nSleeves : Half sleeve\nWash Care : Hand and machine wash, Dry in shade",
        "PRICE": 852,
        "IMAGEURL": "https://static-01.daraz.com.np/p/541e847a5418ecc1d566cee721326532.jpg",
        "Stock": 57
    },
    {
        "ID": 38,
        "NAME": "Shangrila Marshmallow Printed T-Shirt For Men - Fashion | T-Shirts For Men | Men's Wear | Printed T-Shirts |",
        "CATEGORY": "Mens Clothing",
        "SUB-CATEGORY": "T-Shirt",
        "BRANDNAME": "Shangri-la",
        "DESCRIPTION": "Brand: Shangri-La\nFabric: 100% Cotton\nNeck: Round neck\nFit: Regular\nWash Care:Hand/Machine wash",
        "PRICE": 339,
        "IMAGEURL": "https://static-01.daraz.com.np/p/f41935d09f9fb873f1c2de941ff485fe.jpg",
        "Stock": 58
    },
    {
        "ID": 39,
        "NAME": "Shangrila CR7 Printed T-shirt For Men - Fashion | T-Shirts For Men | Men's Wear | Printed T-Shirts |",
        "CATEGORY": "Mens Clothing",
        "SUB-CATEGORY": "T-Shirt",
        "BRANDNAME": "Shangri-la",
        "DESCRIPTION": "Brand: Shangri-La\nFabric: 100% Cotton\nNeck: Round neck\nFit: Regular\nWash Care:Hand/Machine wash",
        "PRICE": 330,
        "IMAGEURL": "https://static-01.daraz.com.np/p/8bb2bec5a68e7c3289d16e2115a89322.png",
        "Stock": 64
    },
    {
        "ID": 40,
        "NAME": "Cotton Printed Half Sleeves T-Shirts For Men - Maroon | Multisize | Fashion | Summer T-Shirts For Men",
        "CATEGORY": "Mens Clothing",
        "SUB-CATEGORY": "T-Shirt",
        "BRANDNAME": "No Brand",
        "DESCRIPTION": "Material: Cotton\nNeck: O Neck\nSleeve: Half Sleeve\nStyle: Printed\nFit: Loose\nWash Care: Hand/Machine Wash",
        "PRICE": 390,
        "IMAGEURL": "https://static-01.daraz.com.np/p/8fb3ca4fa1e8fcbd0c486770cbb5e372.jpg",
        "Stock": 67
    },
    {
        "ID": 41,
        "NAME": "Striped Sweater",
        "CATEGORY": "Mens Clothing",
        "SUB-CATEGORY": "Sweaters",
        "BRANDNAME": "UFO",
        "DESCRIPTION": "Size: M-XL\nColors: Black, Burgundy",
        "PRICE": 2298,
        "IMAGEURL": "https://www.ufonepal.com/ufo/wp-content/uploads/2024/02/106180_DSC09398.jpg",
        "Stock": 99
    },
    {
        "ID": 42,
        "NAME": "Striped Sweater",
        "CATEGORY": "Mens Clothing",
        "SUB-CATEGORY": "Sweaters",
        "BRANDNAME": "UFO",
        "DESCRIPTION": "Size: M-XL\nColors: Blue, Grey",
        "PRICE": 2298,
        "IMAGEURL": "https://www.ufonepal.com/ufo/wp-content/uploads/2024/02/106179_DSC09436.jpg",
        "Stock": 63
    },
    {
        "ID": 43,
        "NAME": "Striped Sweater",
        "CATEGORY": "Mens Clothing",
        "SUB-CATEGORY": "Sweaters",
        "BRANDNAME": "UFO",
        "DESCRIPTION": "Size: M-XL\nColors: Grey, Blue",
        "PRICE": 2298,
        "IMAGEURL": "https://www.ufonepal.com/ufo/wp-content/uploads/2024/02/106178_DSC09413.jpg",
        "Stock": 41
    },
    {
        "ID": 44,
        "NAME": "Sweater",
        "CATEGORY": "Mens Clothing",
        "SUB-CATEGORY": "Sweaters",
        "BRANDNAME": "UFO",
        "DESCRIPTION": "Size: M-XL\nColors: Blue, Green, Brown, Grey",
        "PRICE": 2348,
        "IMAGEURL": "https://www.ufonepal.com/ufo/wp-content/uploads/2024/02/106177_DSC09380.jpg",
        "Stock": 28
    },
    {
        "ID": 45,
        "NAME": "Zip Sweater",
        "CATEGORY": "Mens Clothing",
        "SUB-CATEGORY": "Sweaters",
        "BRANDNAME": "UFO",
        "DESCRIPTION": "Size: M-XL\nColors: Taupe, Brick, Blue",
        "PRICE": 2898,
        "IMAGEURL": "https://www.ufonepal.com/ufo/wp-content/uploads/2024/02/106176_DSC09364.jpg",
        "Stock": 46
    },
    {
        "ID": 46,
        "NAME": "Sweater",
        "CATEGORY": "Mens Clothing",
        "SUB-CATEGORY": "Sweaters",
        "BRANDNAME": "UFO",
        "DESCRIPTION": "Size: M-XL\nColors: Brown, Green, Blue, Black, Off-White",
        "PRICE": 2778,
        "IMAGEURL": "https://www.ufonepal.com/ufo/wp-content/uploads/2024/02/106175_DSC09346.jpg",
        "Stock": 85
    },
    {
        "ID": 47,
        "NAME": "Polo Sweater",
        "CATEGORY": "Mens Clothing",
        "SUB-CATEGORY": "Sweaters",
        "BRANDNAME": "UFO",
        "DESCRIPTION": "Size: L-3XL\nColors: Taupe, Brick, Cream, Black, Smoke Blue",
        "PRICE": 3178,
        "IMAGEURL": "https://www.ufonepal.com/ufo/wp-content/uploads/2023/10/0023_104914_DSC00541-1.jpg",
        "Stock": 3
    },
    {
        "ID": 48,
        "NAME": "High Neck Sweater",
        "CATEGORY": "Mens Clothing",
        "SUB-CATEGORY": "Sweaters",
        "BRANDNAME": "UFO",
        "DESCRIPTION": "Size: M-XL\nColors: Grey, Black",
        "PRICE": 1878,
        "IMAGEURL": "https://www.ufonepal.com/ufo/wp-content/uploads/2023/10/0002_104256_DSC00553.jpg",
        "Stock": 54
    },
    {
        "ID": 49,
        "NAME": "High Neck Sweater",
        "CATEGORY": "Mens Clothing",
        "SUB-CATEGORY": "Sweaters",
        "BRANDNAME": "UFO",
        "DESCRIPTION": "Size: M-XL\nColors: Olive Green, Smoke Blue, Sky Blue, Burgundy, Cream, Green, Black",
        "PRICE": 1878,
        "IMAGEURL": "https://www.ufonepal.com/ufo/wp-content/uploads/2023/10/0008_104255_DSC00548_c.jpg",
        "Stock": 74
    },
    {
        "ID": 50,
        "NAME": "V-Neck Sweater",
        "CATEGORY": "Mens Clothing",
        "SUB-CATEGORY": "Sweaters",
        "BRANDNAME": "UFO",
        "DESCRIPTION": "Size: M-2XL\nColors: Burgundy, Faded Dark Brown, Blue",
        "PRICE": 2598,
        "IMAGEURL": "https://www.ufonepal.com/ufo/wp-content/uploads/2023/01/0000_100927ms.jpg",
        "Stock": 100
    },
    {
        "ID": 51,
        "NAME": "V-Neck Sweater",
        "CATEGORY": "Mens Clothing",
        "SUB-CATEGORY": "Sweaters",
        "BRANDNAME": "UFO",
        "DESCRIPTION": "Size: M-2XL\nColors: Faded Green, Faded Purple, Straw, Peach, Sky Blue",
        "PRICE": 2998,
        "IMAGEURL": "https://www.ufonepal.com/ufo/wp-content/uploads/2023/01/0012_100926ms.jpg",
        "Stock": 84
    },
    {
        "ID": 52,
        "NAME": "Round Neck Sweater",
        "CATEGORY": "Mens Clothing",
        "SUB-CATEGORY": "Sweaters",
        "BRANDNAME": "UFO",
        "DESCRIPTION": "Size: M-2XL\nColors:  Sky Blue, Dark Green, Teal Green, Grey",
        "PRICE": 2648,
        "IMAGEURL": "https://www.ufonepal.com/ufo/wp-content/uploads/2023/01/0003_100928-2.jpg",
        "Stock": 89
    },
    {
        "ID": 53,
        "NAME": "Sweater",
        "CATEGORY": "Mens Clothing",
        "SUB-CATEGORY": "Sweaters",
        "BRANDNAME": "UFO",
        "DESCRIPTION": "Size: M-XL\nColors: Pale Grey, Black, Brown, Light Grey, Burgundy, Dark Grey, Blue",
        "PRICE": 2098,
        "IMAGEURL": "https://www.ufonepal.com/ufo/wp-content/uploads/2022/11/100184_2.jpg",
        "Stock": 59
    },
    {
        "ID": 54,
        "NAME": "Sweater",
        "CATEGORY": "Mens Clothing",
        "SUB-CATEGORY": "Sweaters",
        "BRANDNAME": "UFO",
        "DESCRIPTION": "Sizes: M-XL\n\nColors: Pale Grey, Dark Burgundy, Brown, Light Grey, Black",
        "PRICE": 1998,
        "IMAGEURL": "https://www.ufonepal.com/ufo/wp-content/uploads/2022/11/98297_1.jpg",
        "Stock": 74
    },
    {
        "ID": 55,
        "NAME": "High Neck Sweater",
        "CATEGORY": "Mens Clothing",
        "SUB-CATEGORY": "Sweaters",
        "BRANDNAME": "UFO",
        "DESCRIPTION": "Size: M \u2013 XXXXL\nColour: Peach, Brown, Blue, Grey, Black and Sea Green",
        "PRICE": 2098,
        "IMAGEURL": "https://www.ufonepal.com/ufo/wp-content/uploads/2022/09/98799am.jpg",
        "Stock": 32
    },
    {
        "ID": 56,
        "NAME": "Sweatshirt",
        "CATEGORY": "Mens Clothing",
        "SUB-CATEGORY": "Sweaters",
        "BRANDNAME": "UFO",
        "DESCRIPTION": "Size: M \u2013 XXL\nMaterial: 60% Cotton and 40% Polyester\nColours: Grey, Blue, Green, Black and Orange",
        "PRICE": 2398,
        "IMAGEURL": "https://www.ufonepal.com/ufo/wp-content/uploads/2021/11/97336.jpg",
        "Stock": 55
    },
    {
        "ID": 57,
        "NAME": "Camo Cargo Pants",
        "CATEGORY": "Mens Clothing",
        "SUB-CATEGORY": "Pants",
        "BRANDNAME": "UFO",
        "DESCRIPTION": "Size: 31-34\n\nMaterial: Cotton",
        "PRICE": 2978,
        "IMAGEURL": "https://www.ufonepal.com/ufo/wp-content/uploads/2023/11/104203_DSC09068-Edit.jpg",
        "Stock": 61
    },
    {
        "ID": 58,
        "NAME": "Ripstop Cargo Pants",
        "CATEGORY": "Mens Clothing",
        "SUB-CATEGORY": "Pants",
        "BRANDNAME": "UFO",
        "DESCRIPTION": "Size: S-XL\nColors: Grey, Green, Black, Cream\n\nMaterial: Ripstop Cotton",
        "PRICE": 3198,
        "IMAGEURL": "https://www.ufonepal.com/ufo/wp-content/uploads/2023/10/104261_DSC09009.jpg",
        "Stock": 90
    },
    {
        "ID": 59,
        "NAME": "Relaxed Fit Chinos",
        "CATEGORY": "Mens Clothing",
        "SUB-CATEGORY": "Pants",
        "BRANDNAME": "UFO",
        "DESCRIPTION": "Size: 31-34\nColors: Khaki, Grey, Cream, Dark Brown\n\nMaterial: Stretch Cotton\nRelaxed Fit design",
        "PRICE": 2798,
        "IMAGEURL": "https://www.ufonepal.com/ufo/wp-content/uploads/2023/10/104262_DSC09048-Edit.jpg",
        "Stock": 47
    },
    {
        "ID": 60,
        "NAME": "Elasticated Waist Chinos",
        "CATEGORY": "Mens Clothing",
        "SUB-CATEGORY": "Pants",
        "BRANDNAME": "UFO",
        "DESCRIPTION": "Size: S-XL\nColors: Grey, Black (with Navy tint), Beige\n\nMaterial: Cotton\nElasticized drawstring waistband, Mock fly",
        "PRICE": 2198,
        "IMAGEURL": "https://www.ufonepal.com/ufo/wp-content/uploads/2023/10/104252_DSC09133-Editb.jpg",
        "Stock": 62
    },
    {
        "ID": 61,
        "NAME": "Canvas Pants",
        "CATEGORY": "Mens Clothing",
        "SUB-CATEGORY": "Pants",
        "BRANDNAME": "UFO",
        "DESCRIPTION": "Size: 30-35\nColors: Khaki Brown, Beige, Navi, Grey\n\nMaterial: Cotton",
        "PRICE": 2198,
        "IMAGEURL": "https://www.ufonepal.com/ufo/wp-content/uploads/2023/10/0003_104251_DSC00585-Edit.jpg",
        "Stock": 27
    },
    {
        "ID": 62,
        "NAME": "Denim Pants",
        "CATEGORY": "Mens Clothing",
        "SUB-CATEGORY": "Pants",
        "BRANDNAME": "UFO",
        "DESCRIPTION": "Size: 30-36",
        "PRICE": 2698,
        "IMAGEURL": "https://www.ufonepal.com/ufo/wp-content/uploads/2023/09/0008_P5_104205_DSC07742-Edit.jpg",
        "Stock": 16
    },
    {
        "ID": 63,
        "NAME": "Denim Pants",
        "CATEGORY": "Mens Clothing",
        "SUB-CATEGORY": "Pants",
        "BRANDNAME": "UFO",
        "DESCRIPTION": "Size: 30-36",
        "PRICE": 2678,
        "IMAGEURL": "https://www.ufonepal.com/ufo/wp-content/uploads/2023/09/0006_P6_104206_DSC07750-Edit.jpg",
        "Stock": 87
    },
    {
        "ID": 64,
        "NAME": "Cargo Pants",
        "CATEGORY": "Mens Clothing",
        "SUB-CATEGORY": "Pants",
        "BRANDNAME": "UFO",
        "DESCRIPTION": "Size: S-XL (Swipe through pictures for Size Chart)\nColors: Beige, Combat Green, Khaki, Navy, Grey\n\nMaterial: Stretch Twill Cotton",
        "PRICE": 3198,
        "IMAGEURL": "https://www.ufonepal.com/ufo/wp-content/uploads/2023/09/P2_104200_3198_DSC06529_ed.jpg",
        "Stock": 38
    },
    {
        "ID": 65,
        "NAME": "Tapered Fit Chinos",
        "CATEGORY": "Mens Clothing",
        "SUB-CATEGORY": "Pants",
        "BRANDNAME": "UFO",
        "DESCRIPTION": "Size: 30-36\nColors: Sky Blue, Brown, Cream, Grey\n\nMaterial: Light Canvas (Cotton)\nTapered Fit Design (Regular Waist, Slim Bottom)",
        "PRICE": 2198,
        "IMAGEURL": "https://www.ufonepal.com/ufo/wp-content/uploads/2023/05/100186_ms2_DSC00227-Edit.jpg",
        "Stock": 26
    },
    {
        "ID": 66,
        "NAME": "Camo Cargo Pants",
        "CATEGORY": "Mens Clothing",
        "SUB-CATEGORY": "Pants",
        "BRANDNAME": "UFO",
        "DESCRIPTION": "Size: S-XL\nColor: Camo Green\n\nMaterial: Cotton",
        "PRICE": 2798,
        "IMAGEURL": "https://www.ufonepal.com/ufo/wp-content/uploads/2023/06/0003_102177_camoCargopants_ms2.jpg",
        "Stock": 15
    },
    {
        "ID": 67,
        "NAME": "Cargo Pants",
        "CATEGORY": "Mens Clothing",
        "SUB-CATEGORY": "Pants",
        "BRANDNAME": "UFO",
        "DESCRIPTION": "Size: S-XL\nColors: Cyan Grey, Beige, Green, Khaki, Navy\n\nMaterial: Twill Cotton",
        "PRICE": 2878,
        "IMAGEURL": "https://www.ufonepal.com/ufo/wp-content/uploads/2023/06/101527_99298_ms_edit2.jpg",
        "Stock": 30
    },
    {
        "ID": 68,
        "NAME": "UFO Cotton Pant",
        "CATEGORY": "Mens Clothing",
        "SUB-CATEGORY": "Pants",
        "BRANDNAME": "UFO",
        "DESCRIPTION": "Size: 30 \u2013 36\nColor: Grey, Cream, Green, and Black\n\nMaterial: Soft Twill Cotton (Stretchable Slim Fit Design)",
        "PRICE": 2598,
        "IMAGEURL": "https://www.ufonepal.com/ufo/wp-content/uploads/2021/10/95544iii.jpg",
        "Stock": 35
    },
    {
        "ID": 69,
        "NAME": "Cotton Stretch Pants",
        "CATEGORY": "Mens Clothing",
        "SUB-CATEGORY": "Pants",
        "BRANDNAME": "UFO",
        "DESCRIPTION": "Size: 30-35\nColors: Grey, Cream, Sage Grey, Navy\n\nMaterial: Stretch Cotton",
        "PRICE": 2798,
        "IMAGEURL": "https://www.ufonepal.com/ufo/wp-content/uploads/2023/03/0001_101848_DSC02366.jpg",
        "Stock": 59
    },
    {
        "ID": 70,
        "NAME": "Canvas Pants",
        "CATEGORY": "Mens Clothing",
        "SUB-CATEGORY": "Pants",
        "BRANDNAME": "UFO",
        "DESCRIPTION": "Size: 30-36\nColors: Desert Brown, Light Brown, Navy, Charcoal, Black\n\nMaterial: Cotton Stretch",
        "PRICE": 2398,
        "IMAGEURL": "https://www.ufonepal.com/ufo/wp-content/uploads/2023/03/0005_98074_DSC02378.jpg",
        "Stock": 88
    },
    {
        "ID": 71,
        "NAME": "Cuffed Cargo Pants",
        "CATEGORY": "Mens Clothing",
        "SUB-CATEGORY": "Pants",
        "BRANDNAME": "UFO",
        "DESCRIPTION": "Size: S-XL\nColors: Grey, Beige, Navy",
        "PRICE": 2998,
        "IMAGEURL": "https://www.ufonepal.com/ufo/wp-content/uploads/2023/02/101531_0000_DSC05475.jpg",
        "Stock": 19
    },
    {
        "ID": 72,
        "NAME": "Twill Chinos",
        "CATEGORY": "Mens Clothing",
        "SUB-CATEGORY": "Pants",
        "BRANDNAME": "UFO",
        "DESCRIPTION": "Size: 30-38\n\nColors:  Cream, Black, Green, Navy, Grey",
        "PRICE": 2678,
        "IMAGEURL": "https://www.ufonepal.com/ufo/wp-content/uploads/2022/12/98296ms_edited.jpg",
        "Stock": 48
    },
    {
        "ID": 73,
        "NAME": "Gilet",
        "CATEGORY": "Mens Clothing",
        "SUB-CATEGORY": "Jackets",
        "BRANDNAME": "UFO",
        "DESCRIPTION": "Size: M-2XL\nColors: Brown, White",
        "PRICE": 2998,
        "IMAGEURL": "https://www.ufonepal.com/ufo/wp-content/uploads/2024/01/0002_106155_DSC06856.jpg",
        "Stock": 79
    },
    {
        "ID": 74,
        "NAME": "Gilet",
        "CATEGORY": "Mens Clothing",
        "SUB-CATEGORY": "Jackets",
        "BRANDNAME": "UFO",
        "DESCRIPTION": "Size: M-XL\nColors: White/Black, Black/Brown",
        "PRICE": 2998,
        "IMAGEURL": "https://www.ufonepal.com/ufo/wp-content/uploads/2024/01/0002_106157_DSC06846.jpg",
        "Stock": 47
    },
    {
        "ID": 75,
        "NAME": "Gilet",
        "CATEGORY": "Mens Clothing",
        "SUB-CATEGORY": "Jackets",
        "BRANDNAME": "UFO",
        "DESCRIPTION": "Size: L-2XL\nColors: Black, Brown",
        "PRICE": 2948,
        "IMAGEURL": "https://www.ufonepal.com/ufo/wp-content/uploads/2024/01/106156_DSC06718.jpg",
        "Stock": 50
    },
    {
        "ID": 76,
        "NAME": "Jacket",
        "CATEGORY": "Mens Clothing",
        "SUB-CATEGORY": "Jackets",
        "BRANDNAME": "UFO",
        "DESCRIPTION": "Size: L-3XL",
        "PRICE": 3498,
        "IMAGEURL": "https://www.ufonepal.com/ufo/wp-content/uploads/2023/11/100010_DSC08924-Edit.jpg",
        "Stock": 34
    },
    {
        "ID": 77,
        "NAME": "Fleece Jacket",
        "CATEGORY": "Mens Clothing",
        "SUB-CATEGORY": "Jackets",
        "BRANDNAME": "UFO",
        "DESCRIPTION": "Size: M-2XL",
        "PRICE": 2398,
        "IMAGEURL": "https://www.ufonepal.com/ufo/wp-content/uploads/2023/11/DSC09239-Edit_DSC09239-Edit_ms.jpg",
        "Stock": 11
    },
    {
        "ID": 78,
        "NAME": "Bomber Jacket",
        "CATEGORY": "Mens Clothing",
        "SUB-CATEGORY": "Jackets",
        "BRANDNAME": "UFO",
        "DESCRIPTION": "Size: 170-185 (Eqv. M-2XL)",
        "PRICE": 4898,
        "IMAGEURL": "https://www.ufonepal.com/ufo/wp-content/uploads/2023/11/104993_DSC09031-Edit.jpg",
        "Stock": 41
    },
    {
        "ID": 79,
        "NAME": "Polar Fleece Jacket",
        "CATEGORY": "Mens Clothing",
        "SUB-CATEGORY": "Jackets",
        "BRANDNAME": "UFO",
        "DESCRIPTION": "Size: M-2XL\nColors: Green, Smoke Blue, Light Grey, Burgundy, Brick , Dark Grey, Navy, Black, Brown\n\nMaterial: Polar Fleece (Polyester)",
        "PRICE": 2098,
        "IMAGEURL": "https://www.ufonepal.com/ufo/wp-content/uploads/2023/01/100139_DSC00787_edited-new_ms.jpg",
        "Stock": 72
    },
    {
        "ID": 80,
        "NAME": "Jacket",
        "CATEGORY": "Mens Clothing",
        "SUB-CATEGORY": "Jackets",
        "BRANDNAME": "UFO",
        "DESCRIPTION": "Chinese Size: XL-4XL (Eqv. to Standard M-2XL)\n\nCotton Blend",
        "PRICE": 3498,
        "IMAGEURL": "https://www.ufonepal.com/ufo/wp-content/uploads/2023/11/100011_DSC09251-Edit_ms.jpg",
        "Stock": 72
    },
    {
        "ID": 81,
        "NAME": "Gilet",
        "CATEGORY": "Mens Clothing",
        "SUB-CATEGORY": "Jackets",
        "BRANDNAME": "UFO",
        "DESCRIPTION": "Size: M-2XL",
        "PRICE": 4198,
        "IMAGEURL": "https://www.ufonepal.com/ufo/wp-content/uploads/2023/11/104985_DSC08867-Edit.jpg",
        "Stock": 45
    },
    {
        "ID": 82,
        "NAME": "Denim Jacket",
        "CATEGORY": "Mens Clothing",
        "SUB-CATEGORY": "Jackets",
        "BRANDNAME": "UFO",
        "DESCRIPTION": "Size: M-XL\n\nMaterial: 100% Cotton",
        "PRICE": 2998,
        "IMAGEURL": "https://www.ufonepal.com/ufo/wp-content/uploads/2023/10/104269_DSC09123-Editb.jpg",
        "Stock": 85
    },
    {
        "ID": 83,
        "NAME": "Camo Fleece Jacket",
        "CATEGORY": "Mens Clothing",
        "SUB-CATEGORY": "Jackets",
        "BRANDNAME": "UFO",
        "DESCRIPTION": "Size: M-XL\nColors: Light Blue, Dark Blue, Grey\n\nMaterial: Cotton/Poly Fleece, Inner Fleece",
        "PRICE": 2798,
        "IMAGEURL": "https://www.ufonepal.com/ufo/wp-content/uploads/2023/01/0009_100185ms-3.jpg",
        "Stock": 62
    },
    {
        "ID": 84,
        "NAME": "Jacket",
        "CATEGORY": "Mens Clothing",
        "SUB-CATEGORY": "Jackets",
        "BRANDNAME": "UFO",
        "DESCRIPTION": "Size: M \u2013 XXL\nColour: Off-White and Blue",
        "PRICE": 1798,
        "IMAGEURL": "https://www.ufonepal.com/ufo/wp-content/uploads/2021/11/0004_97288ms.jpg",
        "Stock": 2
    },
    {
        "ID": 85,
        "NAME": "Zip-Up Hoodie",
        "CATEGORY": "Mens Clothing",
        "SUB-CATEGORY": "Jackets",
        "BRANDNAME": "UFO",
        "DESCRIPTION": "Size: M-2XL\n\nColors: Grey, Black, Smoke Blue",
        "PRICE": 2898,
        "IMAGEURL": "https://www.ufonepal.com/ufo/wp-content/uploads/2022/12/100856_4.jpg",
        "Stock": 8
    },
    {
        "ID": 86,
        "NAME": "Sherpa Fleece Jacket",
        "CATEGORY": "Mens Clothing",
        "SUB-CATEGORY": "Jackets",
        "BRANDNAME": "UFO",
        "DESCRIPTION": "Size: S-2XL\n\nColors: Blue, Grey, Black",
        "PRICE": 3298,
        "IMAGEURL": "https://www.ufonepal.com/ufo/wp-content/uploads/2022/12/99771_2.jpg",
        "Stock": 13
    },
    {
        "ID": 87,
        "NAME": "Tab Neck Jacket",
        "CATEGORY": "Mens Clothing",
        "SUB-CATEGORY": "Jackets",
        "BRANDNAME": "UFO",
        "DESCRIPTION": "Size: S-3XL\n\nColors:  Faded Green, Black",
        "PRICE": 4898,
        "IMAGEURL": "https://www.ufonepal.com/ufo/wp-content/uploads/2022/12/100642_3.jpg",
        "Stock": 33
    },
    {
        "ID": 88,
        "NAME": "Fleece Jacket",
        "CATEGORY": "Mens Clothing",
        "SUB-CATEGORY": "Jackets",
        "BRANDNAME": "UFO",
        "DESCRIPTION": "Size: S-2XL\n\nColors: Brick, Smoke Blue, Navy, Green, Yellow, Black",
        "PRICE": 2898,
        "IMAGEURL": "https://www.ufonepal.com/ufo/wp-content/uploads/2022/12/100830_2.jpg",
        "Stock": 64
    },
    {
        "ID": 89,
        "NAME": "Sneakers",
        "CATEGORY": "Mens Clothing",
        "SUB-CATEGORY": "Footwear",
        "BRANDNAME": "UFO",
        "DESCRIPTION": "Size: 39-44\nColors: Cocoa, Brown, Black",
        "PRICE": 3998,
        "IMAGEURL": "https://www.ufonepal.com/ufo/wp-content/uploads/2023/09/0112_P1_104312_P1_104312_DSC08302-Edit.jpg",
        "Stock": 67
    },
    {
        "ID": 90,
        "NAME": "Flat Sneakers",
        "CATEGORY": "Mens Clothing",
        "SUB-CATEGORY": "Footwear",
        "BRANDNAME": "UFO",
        "DESCRIPTION": "Size: 39-44\nColors: Rust, Brown, Black",
        "PRICE": 3998,
        "IMAGEURL": "https://www.ufonepal.com/ufo/wp-content/uploads/2023/09/0106_P2_104309_P2_104309_DSC08316-Edit.jpg",
        "Stock": 2
    },
    {
        "ID": 91,
        "NAME": "Sneakers",
        "CATEGORY": "Mens Clothing",
        "SUB-CATEGORY": "Footwear",
        "BRANDNAME": "UFO",
        "DESCRIPTION": "Size: 39-44\nColors: Rust, Black, Brown",
        "PRICE": 4298,
        "IMAGEURL": "https://www.ufonepal.com/ufo/wp-content/uploads/2023/09/0092_P3_104313_P3_104313_DSC08339-Edit.jpg",
        "Stock": 68
    },
    {
        "ID": 92,
        "NAME": "Contrast Sneakers",
        "CATEGORY": "Mens Clothing",
        "SUB-CATEGORY": "Footwear",
        "BRANDNAME": "UFO",
        "DESCRIPTION": "Size: 39-44\nColors: Black (Brown Counter), Brown, Black (White Counter)",
        "PRICE": 4198,
        "IMAGEURL": "https://www.ufonepal.com/ufo/wp-content/uploads/2023/09/0085_P4_104308_P4_104308_DSC08346-Edit.jpg",
        "Stock": 89
    },
    {
        "ID": 93,
        "NAME": "Trainers",
        "CATEGORY": "Mens Clothing",
        "SUB-CATEGORY": "Footwear",
        "BRANDNAME": "UFO",
        "DESCRIPTION": "Size: 39-44\nColors: Brown, Black",
        "PRICE": 4298,
        "IMAGEURL": "https://www.ufonepal.com/ufo/wp-content/uploads/2023/09/0075_P5_104302_P5_104302_DSC08359-Edit.jpg",
        "Stock": 97
    },
    {
        "ID": 94,
        "NAME": "Sneakers",
        "CATEGORY": "Mens Clothing",
        "SUB-CATEGORY": "Footwear",
        "BRANDNAME": "UFO",
        "DESCRIPTION": "Size: 39-44\nColors: Brown, Black",
        "PRICE": 4198,
        "IMAGEURL": "https://www.ufonepal.com/ufo/wp-content/uploads/2023/09/0068_P6_104301_P6_104301_DSC08374-Edit.jpg",
        "Stock": 92
    },
    {
        "ID": 95,
        "NAME": "Slip-Ons",
        "CATEGORY": "Mens Clothing",
        "SUB-CATEGORY": "Footwear",
        "BRANDNAME": "UFO",
        "DESCRIPTION": "Size: 39-44\nColors: Khaki, Black",
        "PRICE": 3998,
        "IMAGEURL": "https://www.ufonepal.com/ufo/wp-content/uploads/2023/09/0061_P7_104300_P7_104300_DSC08382-Edit.jpg",
        "Stock": 48
    },
    {
        "ID": 96,
        "NAME": "Sneakers",
        "CATEGORY": "Mens Clothing",
        "SUB-CATEGORY": "Footwear",
        "BRANDNAME": "UFO",
        "DESCRIPTION": "Size: 39-44\nColors: Dark Brown, Black",
        "PRICE": 4298,
        "IMAGEURL": "https://www.ufonepal.com/ufo/wp-content/uploads/2023/09/0057_P8_104303_P8_104303_DSC08386-Edit.jpg",
        "Stock": 40
    },
    {
        "ID": 97,
        "NAME": "Sneakers",
        "CATEGORY": "Mens Clothing",
        "SUB-CATEGORY": "Footwear",
        "BRANDNAME": "UFO",
        "DESCRIPTION": "Size: 39-44\nColors: Dark Brown, Brown, Black",
        "PRICE": 4198,
        "IMAGEURL": "https://www.ufonepal.com/ufo/wp-content/uploads/2023/09/0007_P13_104306_P13_104306_DSC08446-Edit.jpg",
        "Stock": 48
    },
    {
        "ID": 98,
        "NAME": "Loafers",
        "CATEGORY": "Mens Clothing",
        "SUB-CATEGORY": "Footwear",
        "BRANDNAME": "UFO",
        "DESCRIPTION": "Size: 39-44\nColors: Brown, Dark Brown, Black",
        "PRICE": 3998,
        "IMAGEURL": "https://www.ufonepal.com/ufo/wp-content/uploads/2023/09/0034_P11_104307_P11_104307_DSC08413-Edit.jpg",
        "Stock": 44
    },
    {
        "ID": 99,
        "NAME": "Sneakers",
        "CATEGORY": "Mens Clothing",
        "SUB-CATEGORY": "Footwear",
        "BRANDNAME": "UFO",
        "DESCRIPTION": "Size: 39-44\nColors: Navy, Black, Brown",
        "PRICE": 4198,
        "IMAGEURL": "https://www.ufonepal.com/ufo/wp-content/uploads/2023/09/0044_P10_104310_P10_104310_DSC08402-Edit.jpg",
        "Stock": 62
    },
    {
        "ID": 100,
        "NAME": "Sneakers",
        "CATEGORY": "Mens Clothing",
        "SUB-CATEGORY": "Footwear",
        "BRANDNAME": "UFO",
        "DESCRIPTION": "Size: 39-44\nColors: Brown, Black",
        "PRICE": 4198,
        "IMAGEURL": "https://www.ufonepal.com/ufo/wp-content/uploads/2023/09/0001_P14_104304_P14_104304_DSC08452-Edit.jpg",
        "Stock": 47
    },
    {
        "ID": 101,
        "NAME": "Loafers",
        "CATEGORY": "Mens Clothing",
        "SUB-CATEGORY": "Footwear",
        "BRANDNAME": "UFO",
        "DESCRIPTION": "Size: 40 \u2013 43\nMaterial: Leather\nColour: Black and Brown",
        "PRICE": 7498,
        "IMAGEURL": "https://www.ufonepal.com/ufo/wp-content/uploads/2022/04/97924a.jpg",
        "Stock": 8
    },
    {
        "ID": 102,
        "NAME": "Loafers",
        "CATEGORY": "Mens Clothing",
        "SUB-CATEGORY": "Footwear",
        "BRANDNAME": "UFO",
        "DESCRIPTION": "Size: 40 \u2013 43\nMaterial: Leather\nColour: Black, Brown and Blue",
        "PRICE": 5898,
        "IMAGEURL": "https://www.ufonepal.com/ufo/wp-content/uploads/2022/04/97926a.jpg",
        "Stock": 72
    },
    {
        "ID": 103,
        "NAME": "Loafers",
        "CATEGORY": "Mens Clothing",
        "SUB-CATEGORY": "Footwear",
        "BRANDNAME": "UFO",
        "DESCRIPTION": "Size: 40 \u2013 43\nMaterial: Leather\nColour: Brown and Black",
        "PRICE": 7498,
        "IMAGEURL": "https://www.ufonepal.com/ufo/wp-content/uploads/2022/04/97925e.jpg",
        "Stock": 96
    }
]